[gd_scene load_steps=11 format=3 uid="uid://b2tt2laahichy"]

[ext_resource type="PackedScene" uid="uid://cgq8ks7ybo7j" path="res://Player/player.tscn" id="1_na28q"]
[ext_resource type="Texture2D" uid="uid://cn7cpukd8ungb" path="res://Sunny-land-files/Sunny-land-files/Graphical Assets/environment/tileset.png" id="1_rsuru"]
[ext_resource type="Script" path="res://BG.gd" id="1_thxib"]
[ext_resource type="Texture2D" uid="uid://c8f4c35ukt23r" path="res://Sunny-land-files/Sunny-land-files/Graphical Assets/environment/Background/back.png" id="2_k3qla"]
[ext_resource type="Texture2D" uid="uid://b2hcdymmsioi0" path="res://Sunny-land-files/Sunny-land-files/Graphical Assets/environment/Background/middle.png" id="3_wpafx"]
[ext_resource type="PackedScene" uid="uid://b6btx4emk72yf" path="res://Frog.tscn" id="6_5pcnw"]
[ext_resource type="Script" path="res://HP.gd" id="7_0qpfy"]

[sub_resource type="TileSetAtlasSource" id="TileSetAtlasSource_m10ya"]
texture = ExtResource("1_rsuru")
1:1/0 = 0
1:1/0/physics_layer_0/linear_velocity = Vector2(0, 0)
1:1/0/physics_layer_0/angular_velocity = 0.0
1:1/0/physics_layer_0/polygon_0/points = PackedVector2Array(-8, -8, 8, -8, 8, 8, -8, 8)
3:1/0 = 0
3:1/0/physics_layer_0/linear_velocity = Vector2(0, 0)
3:1/0/physics_layer_0/angular_velocity = 0.0
3:1/0/physics_layer_0/polygon_0/points = PackedVector2Array(-8, -8, 8, -8, 8, 8, -8, 8)
5:1/0 = 0
5:1/0/physics_layer_0/linear_velocity = Vector2(0, 0)
5:1/0/physics_layer_0/angular_velocity = 0.0
5:1/0/physics_layer_0/polygon_0/points = PackedVector2Array(-8, -8, 8, -8, 8, 8, -8, 8)
7:1/0 = 0
7:1/0/physics_layer_0/linear_velocity = Vector2(0, 0)
7:1/0/physics_layer_0/angular_velocity = 0.0
9:1/0 = 0
9:1/0/physics_layer_0/linear_velocity = Vector2(0, 0)
9:1/0/physics_layer_0/angular_velocity = 0.0
10:1/0 = 0
10:1/0/physics_layer_0/linear_velocity = Vector2(0, 0)
10:1/0/physics_layer_0/angular_velocity = 0.0
11:1/0 = 0
11:1/0/physics_layer_0/linear_velocity = Vector2(0, 0)
11:1/0/physics_layer_0/angular_velocity = 0.0
13:1/0 = 0
13:1/0/physics_layer_0/linear_velocity = Vector2(0, 0)
13:1/0/physics_layer_0/angular_velocity = 0.0
14:1/0 = 0
14:1/0/physics_layer_0/linear_velocity = Vector2(0, 0)
14:1/0/physics_layer_0/angular_velocity = 0.0
16:1/0 = 0
16:1/0/physics_layer_0/linear_velocity = Vector2(0, 0)
16:1/0/physics_layer_0/angular_velocity = 0.0
17:1/0 = 0
17:1/0/physics_layer_0/linear_velocity = Vector2(0, 0)
17:1/0/physics_layer_0/angular_velocity = 0.0
19:1/0 = 0
19:1/0/physics_layer_0/linear_velocity = Vector2(0, 0)
19:1/0/physics_layer_0/angular_velocity = 0.0
20:1/0 = 0
20:1/0/physics_layer_0/linear_velocity = Vector2(0, 0)
20:1/0/physics_layer_0/angular_velocity = 0.0
22:1/0 = 0
22:1/0/physics_layer_0/linear_velocity = Vector2(0, 0)
22:1/0/physics_layer_0/angular_velocity = 0.0
23:1/0 = 0
23:1/0/physics_layer_0/linear_velocity = Vector2(0, 0)
23:1/0/physics_layer_0/angular_velocity = 0.0
13:2/0 = 0
13:2/0/physics_layer_0/linear_velocity = Vector2(0, 0)
13:2/0/physics_layer_0/angular_velocity = 0.0
14:2/0 = 0
14:2/0/physics_layer_0/linear_velocity = Vector2(0, 0)
14:2/0/physics_layer_0/angular_velocity = 0.0
16:2/0 = 0
16:2/0/physics_layer_0/linear_velocity = Vector2(0, 0)
16:2/0/physics_layer_0/angular_velocity = 0.0
17:2/0 = 0
17:2/0/physics_layer_0/linear_velocity = Vector2(0, 0)
17:2/0/physics_layer_0/angular_velocity = 0.0
19:2/0 = 0
19:2/0/physics_layer_0/linear_velocity = Vector2(0, 0)
19:2/0/physics_layer_0/angular_velocity = 0.0
20:2/0 = 0
20:2/0/physics_layer_0/linear_velocity = Vector2(0, 0)
20:2/0/physics_layer_0/angular_velocity = 0.0
22:2/0 = 0
22:2/0/physics_layer_0/linear_velocity = Vector2(0, 0)
22:2/0/physics_layer_0/angular_velocity = 0.0
23:2/0 = 0
23:2/0/physics_layer_0/linear_velocity = Vector2(0, 0)
23:2/0/physics_layer_0/angular_velocity = 0.0
1:3/0 = 0
1:3/0/physics_layer_0/linear_velocity = Vector2(0, 0)
1:3/0/physics_layer_0/angular_velocity = 0.0
1:3/0/physics_layer_0/polygon_0/points = PackedVector2Array(-8, -8, 8, -8, 8, 8, -8, 8)
3:3/0 = 0
3:3/0/physics_layer_0/linear_velocity = Vector2(0, 0)
3:3/0/physics_layer_0/angular_velocity = 0.0
3:3/0/physics_layer_0/polygon_0/points = PackedVector2Array(-8, -8, 8, -8, 8, 8, -8, 8)
5:3/0 = 0
5:3/0/physics_layer_0/linear_velocity = Vector2(0, 0)
5:3/0/physics_layer_0/angular_velocity = 0.0
5:3/0/physics_layer_0/polygon_0/points = PackedVector2Array(-8, -8, 8, -8, 8, 8, -8, 8)
7:3/0 = 0
7:3/0/physics_layer_0/linear_velocity = Vector2(0, 0)
7:3/0/physics_layer_0/angular_velocity = 0.0
8:3/0 = 0
8:3/0/physics_layer_0/linear_velocity = Vector2(0, 0)
8:3/0/physics_layer_0/angular_velocity = 0.0
10:3/0 = 0
10:3/0/physics_layer_0/linear_velocity = Vector2(0, 0)
10:3/0/physics_layer_0/angular_velocity = 0.0
11:3/0 = 0
11:3/0/physics_layer_0/linear_velocity = Vector2(0, 0)
11:3/0/physics_layer_0/angular_velocity = 0.0
14:4/0 = 0
14:4/0/physics_layer_0/linear_velocity = Vector2(0, 0)
14:4/0/physics_layer_0/angular_velocity = 0.0
16:4/0 = 0
16:4/0/physics_layer_0/linear_velocity = Vector2(0, 0)
16:4/0/physics_layer_0/angular_velocity = 0.0
20:4/0 = 0
20:4/0/physics_layer_0/linear_velocity = Vector2(0, 0)
20:4/0/physics_layer_0/angular_velocity = 0.0
22:4/0 = 0
22:4/0/physics_layer_0/linear_velocity = Vector2(0, 0)
22:4/0/physics_layer_0/angular_velocity = 0.0
1:5/0 = 0
1:5/0/physics_layer_0/linear_velocity = Vector2(0, 0)
1:5/0/physics_layer_0/angular_velocity = 0.0
1:5/0/physics_layer_0/polygon_0/points = PackedVector2Array(-8, -8, 8, -8, 8, 8, -8, 8)
3:5/0 = 0
3:5/0/physics_layer_0/linear_velocity = Vector2(0, 0)
3:5/0/physics_layer_0/angular_velocity = 0.0
3:5/0/physics_layer_0/polygon_0/points = PackedVector2Array(-8, -8, 8, -8, 8, 8, -8, 8)
5:5/0 = 0
5:5/0/physics_layer_0/linear_velocity = Vector2(0, 0)
5:5/0/physics_layer_0/angular_velocity = 0.0
5:5/0/physics_layer_0/polygon_0/points = PackedVector2Array(-8, -8, 8, -8, 8, 8, -8, 8)
7:5/0 = 0
7:5/0/physics_layer_0/linear_velocity = Vector2(0, 0)
7:5/0/physics_layer_0/angular_velocity = 0.0
8:5/0 = 0
8:5/0/physics_layer_0/linear_velocity = Vector2(0, 0)
8:5/0/physics_layer_0/angular_velocity = 0.0
9:5/0 = 0
9:5/0/physics_layer_0/linear_velocity = Vector2(0, 0)
9:5/0/physics_layer_0/angular_velocity = 0.0
14:5/0 = 0
14:5/0/physics_layer_0/linear_velocity = Vector2(0, 0)
14:5/0/physics_layer_0/angular_velocity = 0.0
16:5/0 = 0
16:5/0/physics_layer_0/linear_velocity = Vector2(0, 0)
16:5/0/physics_layer_0/angular_velocity = 0.0
20:5/0 = 0
20:5/0/physics_layer_0/linear_velocity = Vector2(0, 0)
20:5/0/physics_layer_0/angular_velocity = 0.0
22:5/0 = 0
22:5/0/physics_layer_0/linear_velocity = Vector2(0, 0)
22:5/0/physics_layer_0/angular_velocity = 0.0
1:7/0 = 0
1:7/0/physics_layer_0/linear_velocity = Vector2(0, 0)
1:7/0/physics_layer_0/angular_velocity = 0.0
3:7/0 = 0
3:7/0/physics_layer_0/linear_velocity = Vector2(0, 0)
3:7/0/physics_layer_0/angular_velocity = 0.0
5:7/0 = 0
5:7/0/physics_layer_0/linear_velocity = Vector2(0, 0)
5:7/0/physics_layer_0/angular_velocity = 0.0
7:7/0 = 0
7:7/0/physics_layer_0/linear_velocity = Vector2(0, 0)
7:7/0/physics_layer_0/angular_velocity = 0.0
9:7/0 = 0
9:7/0/physics_layer_0/linear_velocity = Vector2(0, 0)
9:7/0/physics_layer_0/angular_velocity = 0.0
11:7/0 = 0
11:7/0/physics_layer_0/linear_velocity = Vector2(0, 0)
11:7/0/physics_layer_0/angular_velocity = 0.0
15:7/0 = 0
15:7/0/physics_layer_0/linear_velocity = Vector2(0, 0)
15:7/0/physics_layer_0/angular_velocity = 0.0
17:7/0 = 0
17:7/0/physics_layer_0/linear_velocity = Vector2(0, 0)
17:7/0/physics_layer_0/angular_velocity = 0.0
19:7/0 = 0
19:7/0/physics_layer_0/linear_velocity = Vector2(0, 0)
19:7/0/physics_layer_0/angular_velocity = 0.0
15:9/0 = 0
15:9/0/physics_layer_0/linear_velocity = Vector2(0, 0)
15:9/0/physics_layer_0/angular_velocity = 0.0
17:9/0 = 0
17:9/0/physics_layer_0/linear_velocity = Vector2(0, 0)
17:9/0/physics_layer_0/angular_velocity = 0.0
19:9/0 = 0
19:9/0/physics_layer_0/linear_velocity = Vector2(0, 0)
19:9/0/physics_layer_0/angular_velocity = 0.0
1:10/0 = 0
1:10/0/physics_layer_0/linear_velocity = Vector2(0, 0)
1:10/0/physics_layer_0/angular_velocity = 0.0
2:10/0 = 0
2:10/0/physics_layer_0/linear_velocity = Vector2(0, 0)
2:10/0/physics_layer_0/angular_velocity = 0.0
4:10/0 = 0
4:10/0/physics_layer_0/linear_velocity = Vector2(0, 0)
4:10/0/physics_layer_0/angular_velocity = 0.0
5:10/0 = 0
5:10/0/physics_layer_0/linear_velocity = Vector2(0, 0)
5:10/0/physics_layer_0/angular_velocity = 0.0
7:10/0 = 0
7:10/0/physics_layer_0/linear_velocity = Vector2(0, 0)
7:10/0/physics_layer_0/angular_velocity = 0.0
10:10/0 = 0
10:10/0/physics_layer_0/linear_velocity = Vector2(0, 0)
10:10/0/physics_layer_0/angular_velocity = 0.0
11:10/0 = 0
11:10/0/physics_layer_0/linear_velocity = Vector2(0, 0)
11:10/0/physics_layer_0/angular_velocity = 0.0
2:11/0 = 0
2:11/0/physics_layer_0/linear_velocity = Vector2(0, 0)
2:11/0/physics_layer_0/angular_velocity = 0.0
4:11/0 = 0
4:11/0/physics_layer_0/linear_velocity = Vector2(0, 0)
4:11/0/physics_layer_0/angular_velocity = 0.0
15:11/0 = 0
15:11/0/physics_layer_0/linear_velocity = Vector2(0, 0)
15:11/0/physics_layer_0/angular_velocity = 0.0
17:11/0 = 0
17:11/0/physics_layer_0/linear_velocity = Vector2(0, 0)
17:11/0/physics_layer_0/angular_velocity = 0.0
19:11/0 = 0
19:11/0/physics_layer_0/linear_velocity = Vector2(0, 0)
19:11/0/physics_layer_0/angular_velocity = 0.0
7:13/0 = 0
7:13/0/physics_layer_0/linear_velocity = Vector2(0, 0)
7:13/0/physics_layer_0/angular_velocity = 0.0
9:13/0 = 0
9:13/0/physics_layer_0/linear_velocity = Vector2(0, 0)
9:13/0/physics_layer_0/angular_velocity = 0.0
11:13/0 = 0
11:13/0/physics_layer_0/linear_velocity = Vector2(0, 0)
11:13/0/physics_layer_0/angular_velocity = 0.0
13:13/0 = 0
13:13/0/physics_layer_0/linear_velocity = Vector2(0, 0)
13:13/0/physics_layer_0/angular_velocity = 0.0
7:14/0 = 0
7:14/0/physics_layer_0/linear_velocity = Vector2(0, 0)
7:14/0/physics_layer_0/angular_velocity = 0.0
9:14/0 = 0
9:14/0/physics_layer_0/linear_velocity = Vector2(0, 0)
9:14/0/physics_layer_0/angular_velocity = 0.0
11:14/0 = 0
11:14/0/physics_layer_0/linear_velocity = Vector2(0, 0)
11:14/0/physics_layer_0/angular_velocity = 0.0
15:14/0 = 0
15:14/0/physics_layer_0/linear_velocity = Vector2(0, 0)
15:14/0/physics_layer_0/angular_velocity = 0.0
17:14/0 = 0
17:14/0/physics_layer_0/linear_velocity = Vector2(0, 0)
17:14/0/physics_layer_0/angular_velocity = 0.0
19:14/0 = 0
19:14/0/physics_layer_0/linear_velocity = Vector2(0, 0)
19:14/0/physics_layer_0/angular_velocity = 0.0
1:15/0 = 0
1:15/0/physics_layer_0/linear_velocity = Vector2(0, 0)
1:15/0/physics_layer_0/angular_velocity = 0.0
2:15/0 = 0
2:15/0/physics_layer_0/linear_velocity = Vector2(0, 0)
2:15/0/physics_layer_0/angular_velocity = 0.0
4:15/0 = 0
4:15/0/physics_layer_0/linear_velocity = Vector2(0, 0)
4:15/0/physics_layer_0/angular_velocity = 0.0
5:15/0 = 0
5:15/0/physics_layer_0/linear_velocity = Vector2(0, 0)
5:15/0/physics_layer_0/angular_velocity = 0.0
9:15/0 = 0
9:15/0/physics_layer_0/linear_velocity = Vector2(0, 0)
9:15/0/physics_layer_0/angular_velocity = 0.0
2:16/0 = 0
2:16/0/physics_layer_0/linear_velocity = Vector2(0, 0)
2:16/0/physics_layer_0/angular_velocity = 0.0
4:16/0 = 0
4:16/0/physics_layer_0/linear_velocity = Vector2(0, 0)
4:16/0/physics_layer_0/angular_velocity = 0.0
11:16/0 = 0
11:16/0/physics_layer_0/linear_velocity = Vector2(0, 0)
11:16/0/physics_layer_0/angular_velocity = 0.0
14:16/0 = 0
14:16/0/physics_layer_0/linear_velocity = Vector2(0, 0)
14:16/0/physics_layer_0/angular_velocity = 0.0
15:16/0 = 0
15:16/0/physics_layer_0/linear_velocity = Vector2(0, 0)
15:16/0/physics_layer_0/angular_velocity = 0.0
17:16/0 = 0
17:16/0/physics_layer_0/linear_velocity = Vector2(0, 0)
17:16/0/physics_layer_0/angular_velocity = 0.0
18:16/0 = 0
18:16/0/physics_layer_0/linear_velocity = Vector2(0, 0)
18:16/0/physics_layer_0/angular_velocity = 0.0
19:16/0 = 0
19:16/0/physics_layer_0/linear_velocity = Vector2(0, 0)
19:16/0/physics_layer_0/angular_velocity = 0.0
1:17/0 = 0
1:17/0/physics_layer_0/linear_velocity = Vector2(0, 0)
1:17/0/physics_layer_0/angular_velocity = 0.0
2:17/0 = 0
2:17/0/physics_layer_0/linear_velocity = Vector2(0, 0)
2:17/0/physics_layer_0/angular_velocity = 0.0
4:17/0 = 0
4:17/0/physics_layer_0/linear_velocity = Vector2(0, 0)
4:17/0/physics_layer_0/angular_velocity = 0.0
5:17/0 = 0
5:17/0/physics_layer_0/linear_velocity = Vector2(0, 0)
5:17/0/physics_layer_0/angular_velocity = 0.0
11:17/0 = 0
11:17/0/physics_layer_0/linear_velocity = Vector2(0, 0)
11:17/0/physics_layer_0/angular_velocity = 0.0
14:17/0 = 0
14:17/0/physics_layer_0/linear_velocity = Vector2(0, 0)
14:17/0/physics_layer_0/angular_velocity = 0.0
15:17/0 = 0
15:17/0/physics_layer_0/linear_velocity = Vector2(0, 0)
15:17/0/physics_layer_0/angular_velocity = 0.0
1:18/0 = 0
1:18/0/physics_layer_0/linear_velocity = Vector2(0, 0)
1:18/0/physics_layer_0/angular_velocity = 0.0
2:18/0 = 0
2:18/0/physics_layer_0/linear_velocity = Vector2(0, 0)
2:18/0/physics_layer_0/angular_velocity = 0.0
4:18/0 = 0
4:18/0/physics_layer_0/linear_velocity = Vector2(0, 0)
4:18/0/physics_layer_0/angular_velocity = 0.0
5:18/0 = 0
5:18/0/physics_layer_0/linear_velocity = Vector2(0, 0)
5:18/0/physics_layer_0/angular_velocity = 0.0
10:18/0 = 0
10:18/0/physics_layer_0/linear_velocity = Vector2(0, 0)
10:18/0/physics_layer_0/angular_velocity = 0.0
11:18/0 = 0
11:18/0/physics_layer_0/linear_velocity = Vector2(0, 0)
11:18/0/physics_layer_0/angular_velocity = 0.0
12:18/0 = 0
12:18/0/physics_layer_0/linear_velocity = Vector2(0, 0)
12:18/0/physics_layer_0/angular_velocity = 0.0
14:18/0 = 0
14:18/0/physics_layer_0/linear_velocity = Vector2(0, 0)
14:18/0/physics_layer_0/angular_velocity = 0.0
15:18/0 = 0
15:18/0/physics_layer_0/linear_velocity = Vector2(0, 0)
15:18/0/physics_layer_0/angular_velocity = 0.0
17:18/0 = 0
17:18/0/physics_layer_0/linear_velocity = Vector2(0, 0)
17:18/0/physics_layer_0/angular_velocity = 0.0
19:18/0 = 0
19:18/0/physics_layer_0/linear_velocity = Vector2(0, 0)
19:18/0/physics_layer_0/angular_velocity = 0.0
21:18/0 = 0
21:18/0/physics_layer_0/linear_velocity = Vector2(0, 0)
21:18/0/physics_layer_0/angular_velocity = 0.0
1:20/0 = 0
1:20/0/physics_layer_0/linear_velocity = Vector2(0, 0)
1:20/0/physics_layer_0/angular_velocity = 0.0
3:20/0 = 0
3:20/0/physics_layer_0/linear_velocity = Vector2(0, 0)
3:20/0/physics_layer_0/angular_velocity = 0.0
4:20/0 = 0
4:20/0/physics_layer_0/linear_velocity = Vector2(0, 0)
4:20/0/physics_layer_0/angular_velocity = 0.0
9:20/0 = 0
9:20/0/physics_layer_0/linear_velocity = Vector2(0, 0)
9:20/0/physics_layer_0/angular_velocity = 0.0
10:20/0 = 0
10:20/0/physics_layer_0/linear_velocity = Vector2(0, 0)
10:20/0/physics_layer_0/angular_velocity = 0.0
11:20/0 = 0
11:20/0/physics_layer_0/linear_velocity = Vector2(0, 0)
11:20/0/physics_layer_0/angular_velocity = 0.0
13:20/0 = 0
13:20/0/physics_layer_0/linear_velocity = Vector2(0, 0)
13:20/0/physics_layer_0/angular_velocity = 0.0
14:20/0 = 0
14:20/0/physics_layer_0/linear_velocity = Vector2(0, 0)
14:20/0/physics_layer_0/angular_velocity = 0.0
15:20/0 = 0
15:20/0/physics_layer_0/linear_velocity = Vector2(0, 0)
15:20/0/physics_layer_0/angular_velocity = 0.0
17:20/0 = 0
17:20/0/physics_layer_0/linear_velocity = Vector2(0, 0)
17:20/0/physics_layer_0/angular_velocity = 0.0
3:21/0 = 0
3:21/0/physics_layer_0/linear_velocity = Vector2(0, 0)
3:21/0/physics_layer_0/angular_velocity = 0.0
4:21/0 = 0
4:21/0/physics_layer_0/linear_velocity = Vector2(0, 0)
4:21/0/physics_layer_0/angular_velocity = 0.0
9:21/0 = 0
9:21/0/physics_layer_0/linear_velocity = Vector2(0, 0)
9:21/0/physics_layer_0/angular_velocity = 0.0
10:21/0 = 0
10:21/0/physics_layer_0/linear_velocity = Vector2(0, 0)
10:21/0/physics_layer_0/angular_velocity = 0.0
11:21/0 = 0
11:21/0/physics_layer_0/linear_velocity = Vector2(0, 0)
11:21/0/physics_layer_0/angular_velocity = 0.0
13:21/0 = 0
13:21/0/physics_layer_0/linear_velocity = Vector2(0, 0)
13:21/0/physics_layer_0/angular_velocity = 0.0
14:21/0 = 0
14:21/0/physics_layer_0/linear_velocity = Vector2(0, 0)
14:21/0/physics_layer_0/angular_velocity = 0.0
15:21/0 = 0
15:21/0/physics_layer_0/linear_velocity = Vector2(0, 0)
15:21/0/physics_layer_0/angular_velocity = 0.0
4:4/0 = 0
4:4/0/physics_layer_0/linear_velocity = Vector2(0, 0)
4:4/0/physics_layer_0/angular_velocity = 0.0
4:5/0 = 0
4:5/0/physics_layer_0/linear_velocity = Vector2(0, 0)
4:5/0/physics_layer_0/angular_velocity = 0.0

[sub_resource type="TileSet" id="TileSet_mpxau"]
physics_layer_0/collision_layer = 1
sources/0 = SubResource("TileSetAtlasSource_m10ya")

[sub_resource type="GDScript" id="GDScript_4i83s"]
script/source = "extends Label


# Called when the node enters the scene tree for the first time.
func _ready():
	pass # Replace with function body.


# Called every frame. 'delta' is the elapsed time since the previous frame.
func _process(delta):
	text = \"Gold: \" +  str(Game.Gold)
"

[node name="World" type="Node2D"]

[node name="TileMap" type="TileMap" parent="."]
tile_set = SubResource("TileSet_mpxau")
format = 2
layer_0/tile_data = PackedInt32Array(1572864, 65536, 3, 1572865, 196608, 1, 1572866, 196608, 1, 1572867, 196608, 1, 1572868, 196608, 1, 1572869, 196608, 1, 1572870, 196608, 1, 1572871, 196608, 1, 1572872, 196608, 1, 1572873, 196608, 1, 1572874, 196608, 1, 1572875, 196608, 1, 1572876, 196608, 1, 1572877, 196608, 1, 1572878, 196608, 1, 1572879, 196608, 1, 1572880, 196608, 1, 1572881, 196608, 1, 1572882, 196608, 1, 1572883, 196608, 1, 1572884, 196608, 1, 1572885, 196608, 1, 1572886, 196608, 1, 1572887, 196608, 1, 1572888, 196608, 1, 1572889, 196608, 1, 1572890, 196608, 1, 1572891, 196608, 1, 1572892, 196608, 1, 1572893, 196608, 1, 1572894, 196608, 1, 1572895, 196608, 1, 1572896, 196608, 1, 1572897, 196608, 1, 1572898, 196608, 1, 1572899, 196608, 1, 1572900, 196608, 1, 1572901, 196608, 1, 1572902, 196608, 1, 1572903, 196608, 1, 1572904, 196608, 1, 1572905, 196608, 1, 1572906, 196608, 1, 1572907, 196608, 1, 1572908, 196608, 1, 1572909, 196608, 1, 1572910, 196608, 1, 1572911, 196608, 1, 1572912, 196608, 1, 1572913, 196608, 1, 1572914, 196608, 1, 1572915, 196608, 1, 1572916, 196608, 1, 1572917, 196608, 1, 1572918, 196608, 1, 1572919, 196608, 1, 1572920, 196608, 1, 1572921, 196608, 1, 1572922, 196608, 1, 1572923, 196608, 1, 1572924, 196608, 1, 1572925, 196608, 1, 1572926, 196608, 1, 1572927, 196608, 1, 1572928, 196608, 1, 1572929, 196608, 1, 1572930, 196608, 1, 1572931, 196608, 1, 1572932, 196608, 1, 1572933, 196608, 1, 1572934, 196608, 1, 1572935, 196608, 1, 1572936, 196608, 1, 1572937, 196608, 1, 1572938, 196608, 1, 1572939, 196608, 1, 1638400, 327680, 3, 1638401, 327680, 3, 1638402, 327680, 3, 1638403, 327680, 3, 1638404, 327680, 3, 1638405, 327680, 3, 1638406, 327680, 3, 1638407, 327680, 3, 1638408, 327680, 3, 1638409, 327680, 3, 1638410, 327680, 3, 1638411, 327680, 3, 1638412, 327680, 3, 1638413, 327680, 3, 1638414, 327680, 3, 1638415, 327680, 3, 1638416, 327680, 3, 1638417, 327680, 3, 1638418, 327680, 3, 1638419, 327680, 3, 1638420, 327680, 3, 1638421, 327680, 3, 1638422, 327680, 3, 1638423, 327680, 3, 1638424, 327680, 3, 1638425, 327680, 3, 1638426, 327680, 3, 1638427, 327680, 3, 1638428, 327680, 3, 1638429, 327680, 3, 1638430, 327680, 3, 1638431, 327680, 3, 1638432, 327680, 3, 1638433, 327680, 3, 1638434, 327680, 3, 1638435, 327680, 3, 1638436, 327680, 3, 1638437, 327680, 3, 1638438, 327680, 3, 1638439, 327680, 3, 1638440, 327680, 3, 1638441, 327680, 3, 1638442, 327680, 3, 1638443, 327680, 3, 1638444, 327680, 3, 1638445, 327680, 3, 1638446, 327680, 3, 1638447, 327680, 3, 1638448, 327680, 3, 1638449, 327680, 3, 1638450, 327680, 3, 1638451, 327680, 3, 1638452, 327680, 3, 1638453, 327680, 3, 1638454, 327680, 3, 1638455, 327680, 3, 1638456, 327680, 3, 1638457, 327680, 3, 1638458, 327680, 3, 1638459, 327680, 3, 1638460, 327680, 3, 1638461, 327680, 3, 1638462, 327680, 3, 1638463, 327680, 3, 1638464, 327680, 3, 1638465, 327680, 3, 1638466, 327680, 3, 1638467, 327680, 3, 1638468, 327680, 3, 1638469, 327680, 3, 1638470, 327680, 3, 1638471, 327680, 3, 1638472, 327680, 3, 1638473, 327680, 3, 1638474, 327680, 3, 1638475, 327680, 3, 1704011, 196608, 3, 1704010, 196608, 3, 1704009, 196608, 3, 1704008, 196608, 3, 1704007, 196608, 3, 1704006, 196608, 3, 1704005, 196608, 3, 1704004, 196608, 3, 1704003, 196608, 3, 1704002, 196608, 3, 1704001, 196608, 3, 1704000, 196608, 3, 1703999, 196608, 3, 1703998, 196608, 3, 1703997, 196608, 3, 1703996, 196608, 3, 1703995, 196608, 3, 1703994, 196608, 3, 1703993, 196608, 3, 1703992, 196608, 3, 1703991, 196608, 3, 1703990, 196608, 3, 1703989, 196608, 3, 1703988, 196608, 3, 1703987, 196608, 3, 1703986, 196608, 3, 1703985, 196608, 3, 1703984, 196608, 3, 1703983, 196608, 3, 1703982, 196608, 3, 1703981, 196608, 3, 1703980, 196608, 3, 1703979, 196608, 3, 1703978, 196608, 3, 1703977, 196608, 3, 1703976, 196608, 3, 1703975, 196608, 3, 1703974, 196608, 3, 1703973, 196608, 3, 1703972, 196608, 3, 1703971, 196608, 3, 1703970, 196608, 3, 1703969, 196608, 3, 1703968, 196608, 3, 1703967, 196608, 3, 1703966, 196608, 3, 1703965, 196608, 3, 1703964, 196608, 3, 1703963, 196608, 3, 1703962, 196608, 3, 1703961, 196608, 3, 1703960, 196608, 3, 1703959, 196608, 3, 1703958, 196608, 3, 1703957, 196608, 3, 1703956, 196608, 3, 1703955, 196608, 3, 1703954, 196608, 3, 1703953, 196608, 3, 1703952, 196608, 3, 1703951, 196608, 3, 1703950, 196608, 3, 1703949, 196608, 3, 1703948, 196608, 3, 1703947, 196608, 3, 1703946, 196608, 3, 1703945, 196608, 3, 1703944, 196608, 3, 1703943, 196608, 3, 1703942, 196608, 3, 1703941, 196608, 3, 1703940, 196608, 3, 1703939, 196608, 3, 1703938, 196608, 3, 1703937, 196608, 3, 1703936, 196608, 3, 1769477, 196608, 3, 1769478, 196608, 3, 1769479, 196608, 3, 1769480, 196608, 3, 1769481, 196608, 3, 1769482, 196608, 3, 1769483, 196608, 3, 1769484, 196608, 3, 1835021, 196608, 3, 1835022, 196608, 3, 1835023, 196608, 3, 1835024, 196608, 3, 1835025, 196608, 3, 1835026, 196608, 3, 1835027, 196608, 3, 1900563, 196608, 3, 1900564, 196608, 3, 1900565, 196608, 3, 1900566, 196608, 3, 1900567, 196608, 3, 1900568, 196608, 3, 1900569, 196608, 3, 1966106, 196608, 3, 1966107, 196608, 3, 1966108, 196608, 3, 1966109, 196608, 3, 1966110, 196608, 3, 2031647, 196608, 3, 2031648, 196608, 3, 2031649, 196608, 3, 2031650, 196608, 3, 2031651, 196608, 3, 2031652, 196608, 3, 2031653, 196608, 3, 2031654, 196608, 3, 2097191, 196608, 3, 2097192, 196608, 3, 2097193, 196608, 3, 2097194, 196608, 3, 2097195, 196608, 3, 2097196, 196608, 3, 2097197, 196608, 3, 2097198, 196608, 3, 2097199, 196608, 3, 2162736, 196608, 3, 2162737, 196608, 3, 2162738, 196608, 3, 2162739, 196608, 3, 2162740, 196608, 3, 2162741, 196608, 3, 2162742, 196608, 3, 2097207, 196608, 3, 2097208, 196608, 3, 2097209, 196608, 3, 2031674, 196608, 3, 2031675, 196608, 3, 2031676, 196608, 3, 1966141, 196608, 3, 1966142, 196608, 3, 1966143, 196608, 3, 1966144, 196608, 3, 1900609, 196608, 3, 1900610, 196608, 3, 1900611, 196608, 3, 1900612, 196608, 3, 1900613, 196608, 3, 1900614, 196608, 3, 1835079, 196608, 3, 1835080, 196608, 3, 1835081, 196608, 3, 1835082, 196608, 3, 1835083, 196608, 3, 1769547, 196608, 3, 1769546, 196608, 3, 1769485, 196608, 3, 1769486, 196608, 3, 1769487, 196608, 3, 1769488, 196608, 3, 1769489, 196608, 3, 1769490, 196608, 3, 1769491, 196608, 3, 1769492, 196608, 3, 1769493, 196608, 3, 1769494, 196608, 3, 1769495, 196608, 3, 1769496, 196608, 3, 1769497, 196608, 3, 1769498, 196608, 3, 1769499, 196608, 3, 1769500, 196608, 3, 1769501, 196608, 3, 1769502, 196608, 3, 1769503, 196608, 3, 1769504, 196608, 3, 1769505, 196608, 3, 1769506, 196608, 3, 1769507, 196608, 3, 1769508, 196608, 3, 1769509, 196608, 3, 1769510, 196608, 3, 1769511, 196608, 3, 1769512, 196608, 3, 1769513, 196608, 3, 1769514, 196608, 3, 1769515, 196608, 3, 1769516, 196608, 3, 1769517, 196608, 3, 1769518, 196608, 3, 1769519, 196608, 3, 1769520, 196608, 3, 1769521, 196608, 3, 1769522, 196608, 3, 1769523, 196608, 3, 1769524, 196608, 3, 1769525, 196608, 3, 1769526, 196608, 3, 1769527, 196608, 3, 1769528, 196608, 3, 1769529, 196608, 3, 1769530, 196608, 3, 1769531, 196608, 3, 1769532, 196608, 3, 1769533, 196608, 3, 1769534, 196608, 3, 1769535, 196608, 3, 1769536, 196608, 3, 1769537, 196608, 3, 1769538, 196608, 3, 1769539, 196608, 3, 1769540, 196608, 3, 1769541, 196608, 3, 1769542, 196608, 3, 1769543, 196608, 3, 1769544, 196608, 3, 1769545, 196608, 3, 1769472, 196608, 3, 1769473, 196608, 3, 1769474, 196608, 3, 1769475, 196608, 3, 1769476, 196608, 3, 1835008, 196608, 3, 1900544, 196608, 3, 1966080, 196608, 3, 2031616, 196608, 3, 2097152, 196608, 3, 2162688, 196608, 3, 2228224, 196608, 3, 2293760, 196608, 3, 2359296, 196608, 3, 2424832, 196608, 3, 2490368, 196608, 3, 2555904, 196608, 3, 1835009, 196608, 3, 1900545, 196608, 3, 1966081, 196608, 3, 2031617, 196608, 3, 2097153, 196608, 3, 2162689, 196608, 3, 2228225, 196608, 3, 2293761, 196608, 3, 2359297, 196608, 3, 2424833, 196608, 3, 2490369, 196608, 3, 2555905, 196608, 3, 1835010, 196608, 3, 1900546, 196608, 3, 1966082, 196608, 3, 2031618, 196608, 3, 2097154, 196608, 3, 2162690, 196608, 3, 2228226, 196608, 3, 2293762, 196608, 3, 2359298, 196608, 3, 2424834, 196608, 3, 2490370, 196608, 3, 2555906, 196608, 3, 1835011, 196608, 3, 1900547, 196608, 3, 1966083, 196608, 3, 2031619, 196608, 3, 2097155, 196608, 3, 2162691, 196608, 3, 2228227, 196608, 3, 2293763, 196608, 3, 2359299, 196608, 3, 2424835, 196608, 3, 2490371, 196608, 3, 2555907, 196608, 3, 1835012, 196608, 3, 1900548, 196608, 3, 1966084, 196608, 3, 2031620, 196608, 3, 2097156, 196608, 3, 2162692, 196608, 3, 2228228, 196608, 3, 2293764, 196608, 3, 2359300, 196608, 3, 2424836, 196608, 3, 2490372, 196608, 3, 2555908, 196608, 3, 1835013, 196608, 3, 1900549, 196608, 3, 1966085, 196608, 3, 2031621, 196608, 3, 2097157, 196608, 3, 2162693, 196608, 3, 2228229, 196608, 3, 2293765, 196608, 3, 2359301, 196608, 3, 2424837, 196608, 3, 2490373, 196608, 3, 2555909, 196608, 3, 1835014, 196608, 3, 1900550, 196608, 3, 1966086, 196608, 3, 2031622, 196608, 3, 2097158, 196608, 3, 2162694, 196608, 3, 2228230, 196608, 3, 2293766, 196608, 3, 2359302, 196608, 3, 2424838, 196608, 3, 2490374, 196608, 3, 2555910, 196608, 3, 1835015, 196608, 3, 1900551, 196608, 3, 1966087, 196608, 3, 2031623, 196608, 3, 2097159, 196608, 3, 2162695, 196608, 3, 2228231, 196608, 3, 2293767, 196608, 3, 2359303, 196608, 3, 2424839, 196608, 3, 2490375, 196608, 3, 2555911, 196608, 3, 1835016, 196608, 3, 1900552, 196608, 3, 1966088, 196608, 3, 2031624, 196608, 3, 2097160, 196608, 3, 2162696, 196608, 3, 2228232, 196608, 3, 2293768, 196608, 3, 2359304, 196608, 3, 2424840, 196608, 3, 2490376, 196608, 3, 2555912, 196608, 3, 1835017, 196608, 3, 1900553, 196608, 3, 1966089, 196608, 3, 2031625, 196608, 3, 2097161, 196608, 3, 2162697, 196608, 3, 2228233, 196608, 3, 2293769, 196608, 3, 2359305, 196608, 3, 2424841, 196608, 3, 2490377, 196608, 3, 2555913, 196608, 3, 1835018, 196608, 3, 1900554, 196608, 3, 1966090, 196608, 3, 2031626, 196608, 3, 2097162, 196608, 3, 2162698, 196608, 3, 2228234, 196608, 3, 2293770, 196608, 3, 2359306, 196608, 3, 2424842, 196608, 3, 2490378, 196608, 3, 2555914, 196608, 3, 1835019, 196608, 3, 1900555, 196608, 3, 1966091, 196608, 3, 2031627, 196608, 3, 2097163, 196608, 3, 2162699, 196608, 3, 2228235, 196608, 3, 2293771, 196608, 3, 2359307, 196608, 3, 2424843, 196608, 3, 2490379, 196608, 3, 2555915, 196608, 3, 1835020, 196608, 3, 1900556, 196608, 3, 1966092, 196608, 3, 2031628, 196608, 3, 2097164, 196608, 3, 2162700, 196608, 3, 2228236, 196608, 3, 2293772, 196608, 3, 2359308, 196608, 3, 2424844, 196608, 3, 2490380, 196608, 3, 2555916, 196608, 3, 1900557, 196608, 3, 1966093, 196608, 3, 2031629, 196608, 3, 2097165, 196608, 3, 2162701, 196608, 3, 2228237, 196608, 3, 2293773, 196608, 3, 2359309, 196608, 3, 2424845, 196608, 3, 2490381, 196608, 3, 2555917, 196608, 3, 1900558, 196608, 3, 1966094, 196608, 3, 2031630, 196608, 3, 2097166, 196608, 3, 2162702, 196608, 3, 2228238, 196608, 3, 2293774, 196608, 3, 2359310, 196608, 3, 2424846, 196608, 3, 2490382, 196608, 3, 2555918, 196608, 3, 1900559, 196608, 3, 1966095, 196608, 3, 2031631, 196608, 3, 2097167, 196608, 3, 2162703, 196608, 3, 2228239, 196608, 3, 2293775, 196608, 3, 2359311, 196608, 3, 2424847, 196608, 3, 2490383, 196608, 3, 2555919, 196608, 3, 1900560, 196608, 3, 1966096, 196608, 3, 2031632, 196608, 3, 2097168, 196608, 3, 2162704, 196608, 3, 2228240, 196608, 3, 2293776, 196608, 3, 2359312, 196608, 3, 2424848, 196608, 3, 2490384, 196608, 3, 2555920, 196608, 3, 1900561, 196608, 3, 1966097, 196608, 3, 2031633, 196608, 3, 2097169, 196608, 3, 2162705, 196608, 3, 2228241, 196608, 3, 2293777, 196608, 3, 2359313, 196608, 3, 2424849, 196608, 3, 2490385, 196608, 3, 2555921, 196608, 3, 1900562, 196608, 3, 1966098, 196608, 3, 2031634, 196608, 3, 2097170, 196608, 3, 2162706, 196608, 3, 2228242, 196608, 3, 2293778, 196608, 3, 2359314, 196608, 3, 2424850, 196608, 3, 2490386, 196608, 3, 2555922, 196608, 3, 1966099, 196608, 3, 2031635, 196608, 3, 2097171, 196608, 3, 2162707, 196608, 3, 2228243, 196608, 3, 2293779, 196608, 3, 2359315, 196608, 3, 2424851, 196608, 3, 2490387, 196608, 3, 2555923, 196608, 3, 1835028, 196608, 3, 1966100, 196608, 3, 2031636, 196608, 3, 2097172, 196608, 3, 2162708, 196608, 3, 2228244, 196608, 3, 2293780, 196608, 3, 2359316, 196608, 3, 2424852, 196608, 3, 2490388, 196608, 3, 2555924, 196608, 3, 1835029, 196608, 3, 1966101, 196608, 3, 2031637, 196608, 3, 2097173, 196608, 3, 2162709, 196608, 3, 2228245, 196608, 3, 2293781, 196608, 3, 2359317, 196608, 3, 2424853, 196608, 3, 2490389, 196608, 3, 2555925, 196608, 3, 1835030, 196608, 3, 1966102, 196608, 3, 2031638, 196608, 3, 2097174, 196608, 3, 2162710, 196608, 3, 2228246, 196608, 3, 2293782, 196608, 3, 2359318, 196608, 3, 2424854, 196608, 3, 2490390, 196608, 3, 2555926, 196608, 3, 1835031, 196608, 3, 1966103, 196608, 3, 2031639, 196608, 3, 2097175, 196608, 3, 2162711, 196608, 3, 2228247, 196608, 3, 2293783, 196608, 3, 2359319, 196608, 3, 2424855, 196608, 3, 2490391, 196608, 3, 2555927, 196608, 3, 1835032, 196608, 3, 1966104, 196608, 3, 2031640, 196608, 3, 2097176, 196608, 3, 2162712, 196608, 3, 2228248, 196608, 3, 2293784, 196608, 3, 2359320, 196608, 3, 2424856, 196608, 3, 2490392, 196608, 3, 2555928, 196608, 3, 1835033, 196608, 3, 1966105, 196608, 3, 2031641, 196608, 3, 2097177, 196608, 3, 2162713, 196608, 3, 2228249, 196608, 3, 2293785, 196608, 3, 2359321, 196608, 3, 2424857, 196608, 3, 2490393, 196608, 3, 2555929, 196608, 3, 1835034, 196608, 3, 1900570, 196608, 3, 2031642, 196608, 3, 2097178, 196608, 3, 2162714, 196608, 3, 2228250, 196608, 3, 2293786, 196608, 3, 2359322, 196608, 3, 2424858, 196608, 3, 2490394, 196608, 3, 2555930, 196608, 3, 1835035, 196608, 3, 1900571, 196608, 3, 2031643, 196608, 3, 2097179, 196608, 3, 2162715, 196608, 3, 2228251, 196608, 3, 2293787, 196608, 3, 2359323, 196608, 3, 2424859, 196608, 3, 2490395, 196608, 3, 2555931, 196608, 3, 1835036, 196608, 3, 1900572, 196608, 3, 2031644, 196608, 3, 2097180, 196608, 3, 2162716, 196608, 3, 2228252, 196608, 3, 2293788, 196608, 3, 2359324, 196608, 3, 2424860, 196608, 3, 2490396, 196608, 3, 2555932, 196608, 3, 1835037, 196608, 3, 1900573, 196608, 3, 2031645, 196608, 3, 2097181, 196608, 3, 2162717, 196608, 3, 2228253, 196608, 3, 2293789, 196608, 3, 2359325, 196608, 3, 2424861, 196608, 3, 2490397, 196608, 3, 2555933, 196608, 3, 1835038, 196608, 3, 1900574, 196608, 3, 2031646, 196608, 3, 2097182, 196608, 3, 2162718, 196608, 3, 2228254, 196608, 3, 2293790, 196608, 3, 2359326, 196608, 3, 2424862, 196608, 3, 2490398, 196608, 3, 2555934, 196608, 3, 1835039, 196608, 3, 1900575, 196608, 3, 1966111, 196608, 3, 2097183, 196608, 3, 2162719, 196608, 3, 2228255, 196608, 3, 2293791, 196608, 3, 2359327, 196608, 3, 2424863, 196608, 3, 2490399, 196608, 3, 2555935, 196608, 3, 1835040, 196608, 3, 1900576, 196608, 3, 1966112, 196608, 3, 2097184, 196608, 3, 2162720, 196608, 3, 2228256, 196608, 3, 2293792, 196608, 3, 2359328, 196608, 3, 2424864, 196608, 3, 2490400, 196608, 3, 2555936, 196608, 3, 1835041, 196608, 3, 1900577, 196608, 3, 1966113, 196608, 3, 2097185, 196608, 3, 2162721, 196608, 3, 2228257, 196608, 3, 2293793, 196608, 3, 2359329, 196608, 3, 2424865, 196608, 3, 2490401, 196608, 3, 2555937, 196608, 3, 1835042, 196608, 3, 1900578, 196608, 3, 1966114, 196608, 3, 2097186, 196608, 3, 2162722, 196608, 3, 2228258, 196608, 3, 2293794, 196608, 3, 2359330, 196608, 3, 2424866, 196608, 3, 2490402, 196608, 3, 2555938, 196608, 3, 1835043, 196608, 3, 1900579, 196608, 3, 1966115, 196608, 3, 2097187, 196608, 3, 2162723, 196608, 3, 2228259, 196608, 3, 2293795, 196608, 3, 2359331, 196608, 3, 2424867, 196608, 3, 2490403, 196608, 3, 2555939, 196608, 3, 1835044, 196608, 3, 1900580, 196608, 3, 1966116, 196608, 3, 2097188, 196608, 3, 2162724, 196608, 3, 2228260, 196608, 3, 2293796, 196608, 3, 2359332, 196608, 3, 2424868, 196608, 3, 2490404, 196608, 3, 2555940, 196608, 3, 1835045, 196608, 3, 1900581, 196608, 3, 1966117, 196608, 3, 2097189, 196608, 3, 2162725, 196608, 3, 2228261, 196608, 3, 2293797, 196608, 3, 2359333, 196608, 3, 2424869, 196608, 3, 2490405, 196608, 3, 2555941, 196608, 3, 1835046, 196608, 3, 1900582, 196608, 3, 1966118, 196608, 3, 2097190, 196608, 3, 2162726, 196608, 3, 2228262, 196608, 3, 2293798, 196608, 3, 2359334, 196608, 3, 2424870, 196608, 3, 2490406, 196608, 3, 2555942, 196608, 3, 1835047, 196608, 3, 1900583, 196608, 3, 1966119, 196608, 3, 2031655, 196608, 3, 2162727, 196608, 3, 2228263, 196608, 3, 2293799, 196608, 3, 2359335, 196608, 3, 2424871, 196608, 3, 2490407, 196608, 3, 2555943, 196608, 3, 1835048, 196608, 3, 1900584, 196608, 3, 1966120, 196608, 3, 2031656, 196608, 3, 2162728, 196608, 3, 2228264, 196608, 3, 2293800, 196608, 3, 2359336, 196608, 3, 2424872, 196608, 3, 2490408, 196608, 3, 2555944, 196608, 3, 1835049, 196608, 3, 1900585, 196608, 3, 1966121, 196608, 3, 2031657, 196608, 3, 2162729, 196608, 3, 2228265, 196608, 3, 2293801, 196608, 3, 2359337, 196608, 3, 2424873, 196608, 3, 2490409, 196608, 3, 2555945, 196608, 3, 1835050, 196608, 3, 1900586, 196608, 3, 1966122, 196608, 3, 2031658, 196608, 3, 2162730, 196608, 3, 2228266, 196608, 3, 2293802, 196608, 3, 2359338, 196608, 3, 2424874, 196608, 3, 2490410, 196608, 3, 2555946, 196608, 3, 1835051, 196608, 3, 1900587, 196608, 3, 1966123, 196608, 3, 2031659, 196608, 3, 2162731, 196608, 3, 2228267, 196608, 3, 2293803, 196608, 3, 2359339, 196608, 3, 2424875, 196608, 3, 2490411, 196608, 3, 2555947, 196608, 3, 1835052, 196608, 3, 1900588, 196608, 3, 1966124, 196608, 3, 2031660, 196608, 3, 2162732, 196608, 3, 2228268, 196608, 3, 2293804, 196608, 3, 2359340, 196608, 3, 2424876, 196608, 3, 2490412, 196608, 3, 2555948, 196608, 3, 1835053, 196608, 3, 1900589, 196608, 3, 1966125, 196608, 3, 2031661, 196608, 3, 2162733, 196608, 3, 2228269, 196608, 3, 2293805, 196608, 3, 2359341, 196608, 3, 2424877, 196608, 3, 2490413, 196608, 3, 2555949, 196608, 3, 1835054, 196608, 3, 1900590, 196608, 3, 1966126, 196608, 3, 2031662, 196608, 3, 2162734, 196608, 3, 2228270, 196608, 3, 2293806, 196608, 3, 2359342, 196608, 3, 2424878, 196608, 3, 2490414, 196608, 3, 2555950, 196608, 3, 1835055, 196608, 3, 1900591, 196608, 3, 1966127, 196608, 3, 2031663, 196608, 3, 2162735, 196608, 3, 2228271, 196608, 3, 2293807, 196608, 3, 2359343, 196608, 3, 2424879, 196608, 3, 2490415, 196608, 3, 2555951, 196608, 3, 1835056, 196608, 3, 1900592, 196608, 3, 1966128, 196608, 3, 2031664, 196608, 3, 2097200, 196608, 3, 2228272, 196608, 3, 2293808, 196608, 3, 2359344, 196608, 3, 2424880, 196608, 3, 2490416, 196608, 3, 2555952, 196608, 3, 1835057, 196608, 3, 1900593, 196608, 3, 1966129, 196608, 3, 2031665, 196608, 3, 2097201, 196608, 3, 2228273, 196608, 3, 2293809, 196608, 3, 2359345, 196608, 3, 2424881, 196608, 3, 2490417, 196608, 3, 2555953, 196608, 3, 1835058, 196608, 3, 1900594, 196608, 3, 1966130, 196608, 3, 2031666, 196608, 3, 2097202, 196608, 3, 2228274, 196608, 3, 2293810, 196608, 3, 2359346, 196608, 3, 2424882, 196608, 3, 2490418, 196608, 3, 2555954, 196608, 3, 1835059, 196608, 3, 1900595, 196608, 3, 1966131, 196608, 3, 2031667, 196608, 3, 2097203, 196608, 3, 2228275, 196608, 3, 2293811, 196608, 3, 2359347, 196608, 3, 2424883, 196608, 3, 2490419, 196608, 3, 2555955, 196608, 3, 1835060, 196608, 3, 1900596, 196608, 3, 1966132, 196608, 3, 2031668, 196608, 3, 2097204, 196608, 3, 2228276, 196608, 3, 2293812, 196608, 3, 2359348, 196608, 3, 2424884, 196608, 3, 2490420, 196608, 3, 2555956, 196608, 3, 1835061, 196608, 3, 1900597, 196608, 3, 1966133, 196608, 3, 2031669, 196608, 3, 2097205, 196608, 3, 2228277, 196608, 3, 2293813, 196608, 3, 2359349, 196608, 3, 2424885, 196608, 3, 2490421, 196608, 3, 2555957, 196608, 3, 1835062, 196608, 3, 1900598, 196608, 3, 1966134, 196608, 3, 2031670, 196608, 3, 2097206, 196608, 3, 2228278, 196608, 3, 2293814, 196608, 3, 2359350, 196608, 3, 2424886, 196608, 3, 2490422, 196608, 3, 2555958, 196608, 3, 1835063, 196608, 3, 1900599, 196608, 3, 1966135, 196608, 3, 2031671, 196608, 3, 2162743, 196608, 3, 2228279, 196608, 3, 2293815, 196608, 3, 2359351, 196608, 3, 2424887, 196608, 3, 2490423, 196608, 3, 2555959, 196608, 3, 1835064, 196608, 3, 1900600, 196608, 3, 1966136, 196608, 3, 2031672, 196608, 3, 2162744, 196608, 3, 2228280, 196608, 3, 2293816, 196608, 3, 2359352, 196608, 3, 2424888, 196608, 3, 2490424, 196608, 3, 2555960, 196608, 3, 1835065, 196608, 3, 1900601, 196608, 3, 1966137, 196608, 3, 2031673, 196608, 3, 2162745, 196608, 3, 2228281, 196608, 3, 2293817, 196608, 3, 2359353, 196608, 3, 2424889, 196608, 3, 2490425, 196608, 3, 2555961, 196608, 3, 1835066, 196608, 3, 1900602, 196608, 3, 1966138, 196608, 3, 2097210, 196608, 3, 2162746, 196608, 3, 2228282, 196608, 3, 2293818, 196608, 3, 2359354, 196608, 3, 2424890, 196608, 3, 2490426, 196608, 3, 2555962, 196608, 3, 1835067, 196608, 3, 1900603, 196608, 3, 1966139, 196608, 3, 2097211, 196608, 3, 2162747, 196608, 3, 2228283, 196608, 3, 2293819, 196608, 3, 2359355, 196608, 3, 2424891, 196608, 3, 2490427, 196608, 3, 2555963, 196608, 3, 1835068, 196608, 3, 1900604, 196608, 3, 1966140, 196608, 3, 2097212, 196608, 3, 2162748, 196608, 3, 2228284, 196608, 3, 2293820, 196608, 3, 2359356, 196608, 3, 2424892, 196608, 3, 2490428, 196608, 3, 2555964, 196608, 3, 1835069, 196608, 3, 1900605, 196608, 3, 2031677, 196608, 3, 2097213, 196608, 3, 2162749, 196608, 3, 2228285, 196608, 3, 2293821, 196608, 3, 2359357, 196608, 3, 2424893, 196608, 3, 2490429, 196608, 3, 2555965, 196608, 3, 1835070, 196608, 3, 1900606, 196608, 3, 2031678, 196608, 3, 2097214, 196608, 3, 2162750, 196608, 3, 2228286, 196608, 3, 2293822, 196608, 3, 2359358, 196608, 3, 2424894, 196608, 3, 2490430, 196608, 3, 2555966, 196608, 3, 1835071, 196608, 3, 1900607, 196608, 3, 2031679, 196608, 3, 2097215, 196608, 3, 2162751, 196608, 3, 2228287, 196608, 3, 2293823, 196608, 3, 2359359, 196608, 3, 2424895, 196608, 3, 2490431, 196608, 3, 2555967, 196608, 3, 1835072, 196608, 3, 1900608, 196608, 3, 2031680, 196608, 3, 2097216, 196608, 3, 2162752, 196608, 3, 2228288, 196608, 3, 2293824, 196608, 3, 2359360, 196608, 3, 2424896, 196608, 3, 2490432, 196608, 3, 2555968, 196608, 3, 1835073, 196608, 3, 1966145, 196608, 3, 2031681, 196608, 3, 2097217, 196608, 3, 2162753, 196608, 3, 2228289, 196608, 3, 2293825, 196608, 3, 2359361, 196608, 3, 2424897, 196608, 3, 2490433, 196608, 3, 2555969, 196608, 3, 1835074, 196608, 3, 1966146, 196608, 3, 2031682, 196608, 3, 2097218, 196608, 3, 2162754, 196608, 3, 2228290, 196608, 3, 2293826, 196608, 3, 2359362, 196608, 3, 2424898, 196608, 3, 2490434, 196608, 3, 2555970, 196608, 3, 1835075, 196608, 3, 1966147, 196608, 3, 2031683, 196608, 3, 2097219, 196608, 3, 2162755, 196608, 3, 2228291, 196608, 3, 2293827, 196608, 3, 2359363, 196608, 3, 2424899, 196608, 3, 2490435, 196608, 3, 2555971, 196608, 3, 1835076, 196608, 3, 1966148, 196608, 3, 2031684, 196608, 3, 2097220, 196608, 3, 2162756, 196608, 3, 2228292, 196608, 3, 2293828, 196608, 3, 2359364, 196608, 3, 2424900, 196608, 3, 2490436, 196608, 3, 2555972, 196608, 3, 1835077, 196608, 3, 1966149, 196608, 3, 2031685, 196608, 3, 2097221, 196608, 3, 2162757, 196608, 3, 2228293, 196608, 3, 2293829, 196608, 3, 2359365, 196608, 3, 2424901, 196608, 3, 2490437, 196608, 3, 2555973, 196608, 3, 1835078, 196608, 3, 1966150, 196608, 3, 2031686, 196608, 3, 2097222, 196608, 3, 2162758, 196608, 3, 2228294, 196608, 3, 2293830, 196608, 3, 2359366, 196608, 3, 2424902, 196608, 3, 2490438, 196608, 3, 2555974, 196608, 3, 1900615, 196608, 3, 1966151, 196608, 3, 2031687, 196608, 3, 2097223, 196608, 3, 2162759, 196608, 3, 2228295, 196608, 3, 2293831, 196608, 3, 2359367, 196608, 3, 2424903, 196608, 3, 2490439, 196608, 3, 2555975, 196608, 3, 1900616, 196608, 3, 1966152, 196608, 3, 2031688, 196608, 3, 2097224, 196608, 3, 2162760, 196608, 3, 2228296, 196608, 3, 2293832, 196608, 3, 2359368, 196608, 3, 2424904, 196608, 3, 2490440, 196608, 3, 2555976, 196608, 3, 1900617, 196608, 3, 1966153, 196608, 3, 2031689, 196608, 3, 2097225, 196608, 3, 2162761, 196608, 3, 2228297, 196608, 3, 2293833, 196608, 3, 2359369, 196608, 3, 2424905, 196608, 3, 2490441, 196608, 3, 2555977, 196608, 3, 1900618, 196608, 3, 1966154, 196608, 3, 2031690, 196608, 3, 2097226, 196608, 3, 2162762, 196608, 3, 2228298, 196608, 3, 2293834, 196608, 3, 2359370, 196608, 3, 2424906, 196608, 3, 2490442, 196608, 3, 2555978, 196608, 3, 1900619, 196608, 3, 1966155, 196608, 3, 2031691, 196608, 3, 2097227, 196608, 3, 2162763, 196608, 3, 2228299, 196608, 3, 2293835, 196608, 3, 2359371, 196608, 3, 2424907, 196608, 3, 2490443, 196608, 3, 2555979, 196608, 3, 1572940, 65536, 1, 1572941, 65536, 1, 1572942, 65536, 1, 1572943, 65536, 1, 1572944, 65536, 1, 1572945, 65536, 1, 1572946, 65536, 1, 1572947, 65536, 1, 1572948, 65536, 1, 1572949, 65536, 1, 1572950, 65536, 1, 1572951, 65536, 1, 1572952, 65536, 1, 1572953, 65536, 1, 1572954, 65536, 1, 1572955, 65536, 1, 1572956, 65536, 1, 1572957, 65536, 1, 1572958, 65536, 1, 1572959, 65536, 1, 1572960, 65536, 1, 1572961, 65536, 1, 1572962, 65536, 1, 1572963, 65536, 1, 1572964, 65536, 1, 1572965, 65536, 1, 1572966, 65536, 1, 1572967, 65536, 1, 1572968, 65536, 1, 1572969, 65536, 1, 1572970, 65536, 1, 1572971, 65536, 1, 1572972, 65536, 1, 1572973, 65536, 1, 1572974, 65536, 1, 1572975, 65536, 1, 1572976, 65536, 1, 1572977, 65536, 1, 1572978, 65536, 1, 1572979, 65536, 1, 1572980, 65536, 1, 1572981, 65536, 1, 1572982, 65536, 1, 1572983, 65536, 1, 1572984, 65536, 1, 1572985, 65536, 1, 1572986, 65536, 1, 1572987, 65536, 1, 1572988, 65536, 1, 1572989, 65536, 1, 1572990, 65536, 1, 1572991, 65536, 1, 1572992, 65536, 1, 1572993, 65536, 1, 1572994, 65536, 1, 1572995, 65536, 1, 1572996, 65536, 1, 1572997, 65536, 1, 1572998, 65536, 1, 1572999, 65536, 1, 1573000, 65536, 1, 1573001, 65536, 1, 1573002, 65536, 1, 1573003, 65536, 1, 1573004, 65536, 1, 1573005, 65536, 1, 1573006, 65536, 1, 1573007, 65536, 3, 1704012, 196608, 3, 1769548, 196608, 3, 1835084, 196608, 3, 1900620, 196608, 3, 1966156, 196608, 3, 2031692, 196608, 3, 2097228, 196608, 3, 2162764, 196608, 3, 2228300, 196608, 3, 2293836, 196608, 3, 2359372, 196608, 3, 2424908, 196608, 3, 2490444, 196608, 3, 2555980, 196608, 3, 1704013, 196608, 3, 1769549, 196608, 3, 1835085, 196608, 3, 1900621, 196608, 3, 1966157, 196608, 3, 2031693, 196608, 3, 2097229, 196608, 3, 2162765, 196608, 3, 2228301, 196608, 3, 2293837, 196608, 3, 2359373, 196608, 3, 2424909, 196608, 3, 2490445, 196608, 3, 2555981, 196608, 3, 1704014, 196608, 3, 1769550, 196608, 3, 1835086, 196608, 3, 1900622, 196608, 3, 1966158, 196608, 3, 2031694, 196608, 3, 2097230, 196608, 3, 2162766, 196608, 3, 2228302, 196608, 3, 2293838, 196608, 3, 2359374, 196608, 3, 2424910, 196608, 3, 2490446, 196608, 3, 2555982, 196608, 3, 1704015, 196608, 3, 1769551, 196608, 3, 1835087, 196608, 3, 1900623, 196608, 3, 1966159, 196608, 3, 2031695, 196608, 3, 2097231, 196608, 3, 2162767, 196608, 3, 2228303, 196608, 3, 2293839, 196608, 3, 2359375, 196608, 3, 2424911, 196608, 3, 2490447, 196608, 3, 2555983, 196608, 3, 1704016, 196608, 3, 1769552, 196608, 3, 1835088, 196608, 3, 1900624, 196608, 3, 1966160, 196608, 3, 2031696, 196608, 3, 2097232, 196608, 3, 2162768, 196608, 3, 2228304, 196608, 3, 2293840, 196608, 3, 2359376, 196608, 3, 2424912, 196608, 3, 2490448, 196608, 3, 2555984, 196608, 3, 1704017, 196608, 3, 1769553, 196608, 3, 1835089, 196608, 3, 1900625, 196608, 3, 1966161, 196608, 3, 2031697, 196608, 3, 2097233, 196608, 3, 2162769, 196608, 3, 2228305, 196608, 3, 2293841, 196608, 3, 2359377, 196608, 3, 2424913, 196608, 3, 2490449, 196608, 3, 2555985, 196608, 3, 1704018, 196608, 3, 1769554, 196608, 3, 1835090, 196608, 3, 1900626, 196608, 3, 1966162, 196608, 3, 2031698, 196608, 3, 2097234, 196608, 3, 2162770, 196608, 3, 2228306, 196608, 3, 2293842, 196608, 3, 2359378, 196608, 3, 2424914, 196608, 3, 2490450, 196608, 3, 2555986, 196608, 3, 1704019, 196608, 3, 1769555, 196608, 3, 1835091, 196608, 3, 1900627, 196608, 3, 1966163, 196608, 3, 2031699, 196608, 3, 2097235, 196608, 3, 2162771, 196608, 3, 2228307, 196608, 3, 2293843, 196608, 3, 2359379, 196608, 3, 2424915, 196608, 3, 2490451, 196608, 3, 2555987, 196608, 3, 1704020, 196608, 3, 1769556, 196608, 3, 1835092, 196608, 3, 1900628, 196608, 3, 1966164, 196608, 3, 2031700, 196608, 3, 2097236, 196608, 3, 2162772, 196608, 3, 2228308, 196608, 3, 2293844, 196608, 3, 2359380, 196608, 3, 2424916, 196608, 3, 2490452, 196608, 3, 2555988, 196608, 3, 1704021, 196608, 3, 1769557, 196608, 3, 1835093, 196608, 3, 1900629, 196608, 3, 1966165, 196608, 3, 2031701, 196608, 3, 2097237, 196608, 3, 2162773, 196608, 3, 2228309, 196608, 3, 2293845, 196608, 3, 2359381, 196608, 3, 2424917, 196608, 3, 2490453, 196608, 3, 2555989, 196608, 3, 1704022, 196608, 3, 1769558, 196608, 3, 1835094, 196608, 3, 1900630, 196608, 3, 1966166, 196608, 3, 2031702, 196608, 3, 2097238, 196608, 3, 2162774, 196608, 3, 2228310, 196608, 3, 2293846, 196608, 3, 2359382, 196608, 3, 2424918, 196608, 3, 2490454, 196608, 3, 2555990, 196608, 3, 1704023, 196608, 3, 1769559, 196608, 3, 1835095, 196608, 3, 1900631, 196608, 3, 1966167, 196608, 3, 2031703, 196608, 3, 2097239, 196608, 3, 2162775, 196608, 3, 2228311, 196608, 3, 2293847, 196608, 3, 2359383, 196608, 3, 2424919, 196608, 3, 2490455, 196608, 3, 2555991, 196608, 3, 1704024, 196608, 3, 1769560, 196608, 3, 1835096, 196608, 3, 1900632, 196608, 3, 1966168, 196608, 3, 2031704, 196608, 3, 2097240, 196608, 3, 2162776, 196608, 3, 2228312, 196608, 3, 2293848, 196608, 3, 2359384, 196608, 3, 2424920, 196608, 3, 2490456, 196608, 3, 2555992, 196608, 3, 1704025, 196608, 3, 1769561, 196608, 3, 1835097, 196608, 3, 1900633, 196608, 3, 1966169, 196608, 3, 2031705, 196608, 3, 2097241, 196608, 3, 2162777, 196608, 3, 2228313, 196608, 3, 2293849, 196608, 3, 2359385, 196608, 3, 2424921, 196608, 3, 2490457, 196608, 3, 2555993, 196608, 3, 1704026, 196608, 3, 1769562, 196608, 3, 1835098, 196608, 3, 1900634, 196608, 3, 1966170, 196608, 3, 2031706, 196608, 3, 2097242, 196608, 3, 2162778, 196608, 3, 2228314, 196608, 3, 2293850, 196608, 3, 2359386, 196608, 3, 2424922, 196608, 3, 2490458, 196608, 3, 2555994, 196608, 3, 1704027, 196608, 3, 1769563, 196608, 3, 1835099, 196608, 3, 1900635, 196608, 3, 1966171, 196608, 3, 2031707, 196608, 3, 2097243, 196608, 3, 2162779, 196608, 3, 2228315, 196608, 3, 2293851, 196608, 3, 2359387, 196608, 3, 2424923, 196608, 3, 2490459, 196608, 3, 2555995, 196608, 3, 1704028, 196608, 3, 1769564, 196608, 3, 1835100, 196608, 3, 1900636, 196608, 3, 1966172, 196608, 3, 2031708, 196608, 3, 2097244, 196608, 3, 2162780, 196608, 3, 2228316, 196608, 3, 2293852, 196608, 3, 2359388, 196608, 3, 2424924, 196608, 3, 2490460, 196608, 3, 2555996, 196608, 3, 1704029, 196608, 3, 1769565, 196608, 3, 1835101, 196608, 3, 1900637, 196608, 3, 1966173, 196608, 3, 2031709, 196608, 3, 2097245, 196608, 3, 2162781, 196608, 3, 2228317, 196608, 3, 2293853, 196608, 3, 2359389, 196608, 3, 2424925, 196608, 3, 2490461, 196608, 3, 2555997, 196608, 3, 1704030, 196608, 3, 1769566, 196608, 3, 1835102, 196608, 3, 1900638, 196608, 3, 1966174, 196608, 3, 2031710, 196608, 3, 2097246, 196608, 3, 2162782, 196608, 3, 2228318, 196608, 3, 2293854, 196608, 3, 2359390, 196608, 3, 2424926, 196608, 3, 2490462, 196608, 3, 2555998, 196608, 3, 1704031, 196608, 3, 1769567, 196608, 3, 1835103, 196608, 3, 1900639, 196608, 3, 1966175, 196608, 3, 2031711, 196608, 3, 2097247, 196608, 3, 2162783, 196608, 3, 2228319, 196608, 3, 2293855, 196608, 3, 2359391, 196608, 3, 2424927, 196608, 3, 2490463, 196608, 3, 2555999, 196608, 3, 1704032, 196608, 3, 1769568, 196608, 3, 1835104, 196608, 3, 1900640, 196608, 3, 1966176, 196608, 3, 2031712, 196608, 3, 2097248, 196608, 3, 2162784, 196608, 3, 2228320, 196608, 3, 2293856, 196608, 3, 2359392, 196608, 3, 2424928, 196608, 3, 2490464, 196608, 3, 2556000, 196608, 3, 1704033, 196608, 3, 1769569, 196608, 3, 1835105, 196608, 3, 1900641, 196608, 3, 1966177, 196608, 3, 2031713, 196608, 3, 2097249, 196608, 3, 2162785, 196608, 3, 2228321, 196608, 3, 2293857, 196608, 3, 2359393, 196608, 3, 2424929, 196608, 3, 2490465, 196608, 3, 2556001, 196608, 3, 1704034, 196608, 3, 1769570, 196608, 3, 1835106, 196608, 3, 1900642, 196608, 3, 1966178, 196608, 3, 2031714, 196608, 3, 2097250, 196608, 3, 2162786, 196608, 3, 2228322, 196608, 3, 2293858, 196608, 3, 2359394, 196608, 3, 2424930, 196608, 3, 2490466, 196608, 3, 2556002, 196608, 3, 1704035, 196608, 3, 1769571, 196608, 3, 1835107, 196608, 3, 1900643, 196608, 3, 1966179, 196608, 3, 2031715, 196608, 3, 2097251, 196608, 3, 2162787, 196608, 3, 2228323, 196608, 3, 2293859, 196608, 3, 2359395, 196608, 3, 2424931, 196608, 3, 2490467, 196608, 3, 2556003, 196608, 3, 1704036, 196608, 3, 1769572, 196608, 3, 1835108, 196608, 3, 1900644, 196608, 3, 1966180, 196608, 3, 2031716, 196608, 3, 2097252, 196608, 3, 2162788, 196608, 3, 2228324, 196608, 3, 2293860, 196608, 3, 2359396, 196608, 3, 2424932, 196608, 3, 2490468, 196608, 3, 2556004, 196608, 3, 1704037, 196608, 3, 1769573, 196608, 3, 1835109, 196608, 3, 1900645, 196608, 3, 1966181, 196608, 3, 2031717, 196608, 3, 2097253, 196608, 3, 2162789, 196608, 3, 2228325, 196608, 3, 2293861, 196608, 3, 2359397, 196608, 3, 2424933, 196608, 3, 2490469, 196608, 3, 2556005, 196608, 3, 1704038, 196608, 3, 1769574, 196608, 3, 1835110, 196608, 3, 1900646, 196608, 3, 1966182, 196608, 3, 2031718, 196608, 3, 2097254, 196608, 3, 2162790, 196608, 3, 2228326, 196608, 3, 2293862, 196608, 3, 2359398, 196608, 3, 2424934, 196608, 3, 2490470, 196608, 3, 2556006, 196608, 3, 1704039, 196608, 3, 1769575, 196608, 3, 1835111, 196608, 3, 1900647, 196608, 3, 1966183, 196608, 3, 2031719, 196608, 3, 2097255, 196608, 3, 2162791, 196608, 3, 2228327, 196608, 3, 2293863, 196608, 3, 2359399, 196608, 3, 2424935, 196608, 3, 2490471, 196608, 3, 2556007, 196608, 3, 1704040, 196608, 3, 1769576, 196608, 3, 1835112, 196608, 3, 1900648, 196608, 3, 1966184, 196608, 3, 2031720, 196608, 3, 2097256, 196608, 3, 2162792, 196608, 3, 2228328, 196608, 3, 2293864, 196608, 3, 2359400, 196608, 3, 2424936, 196608, 3, 2490472, 196608, 3, 2556008, 196608, 3, 1704041, 196608, 3, 1769577, 196608, 3, 1835113, 196608, 3, 1900649, 196608, 3, 1966185, 196608, 3, 2031721, 196608, 3, 2097257, 196608, 3, 2162793, 196608, 3, 2228329, 196608, 3, 2293865, 196608, 3, 2359401, 196608, 3, 2424937, 196608, 3, 2490473, 196608, 3, 2556009, 196608, 3, 1704042, 196608, 3, 1769578, 196608, 3, 1835114, 196608, 3, 1900650, 196608, 3, 1966186, 196608, 3, 2031722, 196608, 3, 2097258, 196608, 3, 2162794, 196608, 3, 2228330, 196608, 3, 2293866, 196608, 3, 2359402, 196608, 3, 2424938, 196608, 3, 2490474, 196608, 3, 2556010, 196608, 3, 1704043, 196608, 3, 1769579, 196608, 3, 1835115, 196608, 3, 1900651, 196608, 3, 1966187, 196608, 3, 2031723, 196608, 3, 2097259, 196608, 3, 2162795, 196608, 3, 2228331, 196608, 3, 2293867, 196608, 3, 2359403, 196608, 3, 2424939, 196608, 3, 2490475, 196608, 3, 2556011, 196608, 3, 1704044, 196608, 3, 1769580, 196608, 3, 1835116, 196608, 3, 1900652, 196608, 3, 1966188, 196608, 3, 2031724, 196608, 3, 2097260, 196608, 3, 2162796, 196608, 3, 2228332, 196608, 3, 2293868, 196608, 3, 2359404, 196608, 3, 2424940, 196608, 3, 2490476, 196608, 3, 2556012, 196608, 3, 1704045, 196608, 3, 1769581, 196608, 3, 1835117, 196608, 3, 1900653, 196608, 3, 1966189, 196608, 3, 2031725, 196608, 3, 2097261, 196608, 3, 2162797, 196608, 3, 2228333, 196608, 3, 2293869, 196608, 3, 2359405, 196608, 3, 2424941, 196608, 3, 2490477, 196608, 3, 2556013, 196608, 3, 1704046, 196608, 3, 1769582, 196608, 3, 1835118, 196608, 3, 1900654, 196608, 3, 1966190, 196608, 3, 2031726, 196608, 3, 2097262, 196608, 3, 2162798, 196608, 3, 2228334, 196608, 3, 2293870, 196608, 3, 2359406, 196608, 3, 2424942, 196608, 3, 2490478, 196608, 3, 2556014, 196608, 3, 1704047, 196608, 3, 1769583, 196608, 3, 1835119, 196608, 3, 1900655, 196608, 3, 1966191, 196608, 3, 2031727, 196608, 3, 2097263, 196608, 3, 2162799, 196608, 3, 2228335, 196608, 3, 2293871, 196608, 3, 2359407, 196608, 3, 2424943, 196608, 3, 2490479, 196608, 3, 2556015, 196608, 3, 1704048, 196608, 3, 1769584, 196608, 3, 1835120, 196608, 3, 1900656, 196608, 3, 1966192, 196608, 3, 2031728, 196608, 3, 2097264, 196608, 3, 2162800, 196608, 3, 2228336, 196608, 3, 2293872, 196608, 3, 2359408, 196608, 3, 2424944, 196608, 3, 2490480, 196608, 3, 2556016, 196608, 3, 1704049, 196608, 3, 1769585, 196608, 3, 1835121, 196608, 3, 1900657, 196608, 3, 1966193, 196608, 3, 2031729, 196608, 3, 2097265, 196608, 3, 2162801, 196608, 3, 2228337, 196608, 3, 2293873, 196608, 3, 2359409, 196608, 3, 2424945, 196608, 3, 2490481, 196608, 3, 2556017, 196608, 3, 1704050, 196608, 3, 1769586, 196608, 3, 1835122, 196608, 3, 1900658, 196608, 3, 1966194, 196608, 3, 2031730, 196608, 3, 2097266, 196608, 3, 2162802, 196608, 3, 2228338, 196608, 3, 2293874, 196608, 3, 2359410, 196608, 3, 2424946, 196608, 3, 2490482, 196608, 3, 2556018, 196608, 3, 1704051, 196608, 3, 1769587, 196608, 3, 1835123, 196608, 3, 1900659, 196608, 3, 1966195, 196608, 3, 2031731, 196608, 3, 2097267, 196608, 3, 2162803, 196608, 3, 2228339, 196608, 3, 2293875, 196608, 3, 2359411, 196608, 3, 2424947, 196608, 3, 2490483, 196608, 3, 2556019, 196608, 3, 1704052, 196608, 3, 1769588, 196608, 3, 1835124, 196608, 3, 1900660, 196608, 3, 1966196, 196608, 3, 2031732, 196608, 3, 2097268, 196608, 3, 2162804, 196608, 3, 2228340, 196608, 3, 2293876, 196608, 3, 2359412, 196608, 3, 2424948, 196608, 3, 2490484, 196608, 3, 2556020, 196608, 3, 1704053, 196608, 3, 1769589, 196608, 3, 1835125, 196608, 3, 1900661, 196608, 3, 1966197, 196608, 3, 2031733, 196608, 3, 2097269, 196608, 3, 2162805, 196608, 3, 2228341, 196608, 3, 2293877, 196608, 3, 2359413, 196608, 3, 2424949, 196608, 3, 2490485, 196608, 3, 2556021, 196608, 3, 1704054, 196608, 3, 1769590, 196608, 3, 1835126, 196608, 3, 1900662, 196608, 3, 1966198, 196608, 3, 2031734, 196608, 3, 2097270, 196608, 3, 2162806, 196608, 3, 2228342, 196608, 3, 2293878, 196608, 3, 2359414, 196608, 3, 2424950, 196608, 3, 2490486, 196608, 3, 2556022, 196608, 3, 1704055, 196608, 3, 1769591, 196608, 3, 1835127, 196608, 3, 1900663, 196608, 3, 1966199, 196608, 3, 2031735, 196608, 3, 2097271, 196608, 3, 2162807, 196608, 3, 2228343, 196608, 3, 2293879, 196608, 3, 2359415, 196608, 3, 2424951, 196608, 3, 2490487, 196608, 3, 2556023, 196608, 3, 1704056, 196608, 3, 1769592, 196608, 3, 1835128, 196608, 3, 1900664, 196608, 3, 1966200, 196608, 3, 2031736, 196608, 3, 2097272, 196608, 3, 2162808, 196608, 3, 2228344, 196608, 3, 2293880, 196608, 3, 2359416, 196608, 3, 2424952, 196608, 3, 2490488, 196608, 3, 2556024, 196608, 3, 1704057, 196608, 3, 1769593, 196608, 3, 1835129, 196608, 3, 1900665, 196608, 3, 1966201, 196608, 3, 2031737, 196608, 3, 2097273, 196608, 3, 2162809, 196608, 3, 2228345, 196608, 3, 2293881, 196608, 3, 2359417, 196608, 3, 2424953, 196608, 3, 2490489, 196608, 3, 2556025, 196608, 3, 1704058, 196608, 3, 1769594, 196608, 3, 1835130, 196608, 3, 1900666, 196608, 3, 1966202, 196608, 3, 2031738, 196608, 3, 2097274, 196608, 3, 2162810, 196608, 3, 2228346, 196608, 3, 2293882, 196608, 3, 2359418, 196608, 3, 2424954, 196608, 3, 2490490, 196608, 3, 2556026, 196608, 3, 1704059, 196608, 3, 1769595, 196608, 3, 1835131, 196608, 3, 1900667, 196608, 3, 1966203, 196608, 3, 2031739, 196608, 3, 2097275, 196608, 3, 2162811, 196608, 3, 2228347, 196608, 3, 2293883, 196608, 3, 2359419, 196608, 3, 2424955, 196608, 3, 2490491, 196608, 3, 2556027, 196608, 3, 1704060, 196608, 3, 1769596, 196608, 3, 1835132, 196608, 3, 1900668, 196608, 3, 1966204, 196608, 3, 2031740, 196608, 3, 2097276, 196608, 3, 2162812, 196608, 3, 2228348, 196608, 3, 2293884, 196608, 3, 2359420, 196608, 3, 2424956, 196608, 3, 2490492, 196608, 3, 2556028, 196608, 3, 1704061, 196608, 3, 1769597, 196608, 3, 1835133, 196608, 3, 1900669, 196608, 3, 1966205, 196608, 3, 2031741, 196608, 3, 2097277, 196608, 3, 2162813, 196608, 3, 2228349, 196608, 3, 2293885, 196608, 3, 2359421, 196608, 3, 2424957, 196608, 3, 2490493, 196608, 3, 2556029, 196608, 3, 1704062, 196608, 3, 1769598, 196608, 3, 1835134, 196608, 3, 1900670, 196608, 3, 1966206, 196608, 3, 2031742, 196608, 3, 2097278, 196608, 3, 2162814, 196608, 3, 2228350, 196608, 3, 2293886, 196608, 3, 2359422, 196608, 3, 2424958, 196608, 3, 2490494, 196608, 3, 2556030, 196608, 3, 1704063, 196608, 3, 1769599, 196608, 3, 1835135, 196608, 3, 1900671, 196608, 3, 1966207, 196608, 3, 2031743, 196608, 3, 2097279, 196608, 3, 2162815, 196608, 3, 2228351, 196608, 3, 2293887, 196608, 3, 2359423, 196608, 3, 2424959, 196608, 3, 2490495, 196608, 3, 2556031, 196608, 3, 1704064, 196608, 3, 1769600, 196608, 3, 1835136, 196608, 3, 1900672, 196608, 3, 1966208, 196608, 3, 2031744, 196608, 3, 2097280, 196608, 3, 2162816, 196608, 3, 2228352, 196608, 3, 2293888, 196608, 3, 2359424, 196608, 3, 2424960, 196608, 3, 2490496, 196608, 3, 2556032, 196608, 3, 1704065, 196608, 3, 1769601, 196608, 3, 1835137, 196608, 3, 1900673, 196608, 3, 1966209, 196608, 3, 2031745, 196608, 3, 2097281, 196608, 3, 2162817, 196608, 3, 2228353, 196608, 3, 2293889, 196608, 3, 2359425, 196608, 3, 2424961, 196608, 3, 2490497, 196608, 3, 2556033, 196608, 3, 1704066, 196608, 3, 1769602, 196608, 3, 1835138, 196608, 3, 1900674, 196608, 3, 1966210, 196608, 3, 2031746, 196608, 3, 2097282, 196608, 3, 2162818, 196608, 3, 2228354, 196608, 3, 2293890, 196608, 3, 2359426, 196608, 3, 2424962, 196608, 3, 2490498, 196608, 3, 2556034, 196608, 3, 1704067, 196608, 3, 1769603, 196608, 3, 1835139, 196608, 3, 1900675, 196608, 3, 1966211, 196608, 3, 2031747, 196608, 3, 2097283, 196608, 3, 2162819, 196608, 3, 2228355, 196608, 3, 2293891, 196608, 3, 2359427, 196608, 3, 2424963, 196608, 3, 2490499, 196608, 3, 2556035, 196608, 3, 1704068, 196608, 3, 1769604, 196608, 3, 1835140, 196608, 3, 1900676, 196608, 3, 1966212, 196608, 3, 2031748, 196608, 3, 2097284, 196608, 3, 2162820, 196608, 3, 2228356, 196608, 3, 2293892, 196608, 3, 2359428, 196608, 3, 2424964, 196608, 3, 2490500, 196608, 3, 2556036, 196608, 3, 1704069, 196608, 3, 1769605, 196608, 3, 1835141, 196608, 3, 1900677, 196608, 3, 1966213, 196608, 3, 2031749, 196608, 3, 2097285, 196608, 3, 2162821, 196608, 3, 2228357, 196608, 3, 2293893, 196608, 3, 2359429, 196608, 3, 2424965, 196608, 3, 2490501, 196608, 3, 2556037, 196608, 3, 1704070, 196608, 3, 1769606, 196608, 3, 1835142, 196608, 3, 1900678, 196608, 3, 1966214, 196608, 3, 2031750, 196608, 3, 2097286, 196608, 3, 2162822, 196608, 3, 2228358, 196608, 3, 2293894, 196608, 3, 2359430, 196608, 3, 2424966, 196608, 3, 2490502, 196608, 3, 2556038, 196608, 3, 1704071, 196608, 3, 1769607, 196608, 3, 1835143, 196608, 3, 1900679, 196608, 3, 1966215, 196608, 3, 2031751, 196608, 3, 2097287, 196608, 3, 2162823, 196608, 3, 2228359, 196608, 3, 2293895, 196608, 3, 2359431, 196608, 3, 2424967, 196608, 3, 2490503, 196608, 3, 2556039, 196608, 3, 1704072, 196608, 3, 1769608, 196608, 3, 1835144, 196608, 3, 1900680, 196608, 3, 1966216, 196608, 3, 2031752, 196608, 3, 2097288, 196608, 3, 2162824, 196608, 3, 2228360, 196608, 3, 2293896, 196608, 3, 2359432, 196608, 3, 2424968, 196608, 3, 2490504, 196608, 3, 2556040, 196608, 3, 1704073, 196608, 3, 1769609, 196608, 3, 1835145, 196608, 3, 1900681, 196608, 3, 1966217, 196608, 3, 2031753, 196608, 3, 2097289, 196608, 3, 2162825, 196608, 3, 2228361, 196608, 3, 2293897, 196608, 3, 2359433, 196608, 3, 2424969, 196608, 3, 2490505, 196608, 3, 2556041, 196608, 3, 1704074, 196608, 3, 1769610, 196608, 3, 1835146, 196608, 3, 1900682, 196608, 3, 1966218, 196608, 3, 2031754, 196608, 3, 2097290, 196608, 3, 2162826, 196608, 3, 2228362, 196608, 3, 2293898, 196608, 3, 2359434, 196608, 3, 2424970, 196608, 3, 2490506, 196608, 3, 2556042, 196608, 3, 1704075, 196608, 3, 1769611, 196608, 3, 1835147, 196608, 3, 1900683, 196608, 3, 1966219, 196608, 3, 2031755, 196608, 3, 2097291, 196608, 3, 2162827, 196608, 3, 2228363, 196608, 3, 2293899, 196608, 3, 2359435, 196608, 3, 2424971, 196608, 3, 2490507, 196608, 3, 2556043, 196608, 3, 1704076, 196608, 3, 1769612, 196608, 3, 1835148, 196608, 3, 1900684, 196608, 3, 1966220, 196608, 3, 2031756, 196608, 3, 2097292, 196608, 3, 2162828, 196608, 3, 2228364, 196608, 3, 2293900, 196608, 3, 2359436, 196608, 3, 2424972, 196608, 3, 2490508, 196608, 3, 2556044, 196608, 3, 1704077, 196608, 3, 1769613, 196608, 3, 1835149, 196608, 3, 1900685, 196608, 3, 1966221, 196608, 3, 2031757, 196608, 3, 2097293, 196608, 3, 2162829, 196608, 3, 2228365, 196608, 3, 2293901, 196608, 3, 2359437, 196608, 3, 2424973, 196608, 3, 2490509, 196608, 3, 2556045, 196608, 3, 1704078, 196608, 3, 1769614, 196608, 3, 1835150, 196608, 3, 1900686, 196608, 3, 1966222, 196608, 3, 2031758, 196608, 3, 2097294, 196608, 3, 2162830, 196608, 3, 2228366, 196608, 3, 2293902, 196608, 3, 2359438, 196608, 3, 2424974, 196608, 3, 2490510, 196608, 3, 2556046, 196608, 3, 1704079, 196608, 3, 1769615, 196608, 3, 1835151, 196608, 3, 1900687, 196608, 3, 1966223, 196608, 3, 2031759, 196608, 3, 2097295, 196608, 3, 2162831, 196608, 3, 2228367, 196608, 3, 2293903, 196608, 3, 2359439, 196608, 3, 2424975, 196608, 3, 2490511, 196608, 3, 2556047, 196608, 3, 1638476, 196608, 3, 1638477, 196608, 3, 1638478, 196608, 3, 1638479, 196608, 3, 1638480, 196608, 3, 1638481, 196608, 3, 1638482, 196608, 3, 1638483, 196608, 3, 1638484, 196608, 3, 1638485, 196608, 3, 1638486, 196608, 3, 1638487, 196608, 3, 1638488, 196608, 3, 1638489, 196608, 3, 1638490, 196608, 3, 1638491, 196608, 3, 1638492, 196608, 3, 1638493, 196608, 3, 1638494, 196608, 3, 1638495, 196608, 3, 1638496, 196608, 3, 1638497, 196608, 3, 1638498, 196608, 3, 1638499, 196608, 3, 1638500, 196608, 3, 1638501, 196608, 3, 1638502, 196608, 3, 1638503, 196608, 3, 1638504, 196608, 3, 1638505, 196608, 3, 1638506, 196608, 3, 1638507, 196608, 3, 1638508, 196608, 3, 1638509, 196608, 3, 1638510, 196608, 3, 1638511, 196608, 3, 1638512, 196608, 3, 1638513, 196608, 3, 1638514, 196608, 3, 1638515, 196608, 3, 1638516, 196608, 3, 1638517, 196608, 3, 1638518, 196608, 3, 1638519, 196608, 3, 1638520, 196608, 3, 1638521, 196608, 3, 1638522, 196608, 3, 1638523, 196608, 3, 1638524, 196608, 3, 1638525, 196608, 3, 1638526, 196608, 3, 1638527, 196608, 3, 1638528, 196608, 3, 1638529, 196608, 3, 1638530, 196608, 3, 1638531, 196608, 3, 1638532, 196608, 3, 1638533, 196608, 3, 1638534, 196608, 3, 1638535, 196608, 3, 1638536, 196608, 3, 1638537, 196608, 3, 1638538, 196608, 3, 1638539, 196608, 3, 1638540, 196608, 3, 1638541, 196608, 3, 1638542, 196608, 3, 1638543, 196608, 3, 65679, 65536, 3, 131215, 65536, 3, 196751, 65536, 3, 262287, 65536, 3, 327823, 65536, 3, 393359, 65536, 3, 458895, 65536, 3, 524431, 65536, 3, 589967, 65536, 3, 655503, 65536, 3, 721039, 65536, 3, 786575, 65536, 3, 852111, 65536, 3, 917647, 65536, 3, 983183, 65536, 3, 1048719, 65536, 3, 1114255, 65536, 3, 1179791, 65536, 3, 1245327, 65536, 3, 1310863, 65536, 3, 1376399, 65536, 3, 1441935, 65536, 3, 1507471, 65536, 3, 143, 65536, 3, 0, 65536, 3, 65536, 65536, 3, 131072, 65536, 3, 196608, 65536, 3, 262144, 65536, 3, 327680, 65536, 3, 393216, 65536, 3, 458752, 65536, 3, 524288, 65536, 3, 589824, 65536, 3, 655360, 65536, 3, 720896, 65536, 3, 786432, 65536, 3, 851968, 65536, 3, 917504, 65536, 3, 983040, 65536, 3, 1048576, 65536, 3, 1114112, 65536, 3, 1179648, 65536, 3, 1245184, 65536, 3, 1310720, 65536, 3, 1376256, 65536, 3, 1441792, 65536, 3, 1507328, 65536, 3)

[node name="BG" type="ParallaxBackground" parent="."]
script = ExtResource("1_thxib")

[node name="ParallaxLayer" type="ParallaxLayer" parent="BG"]
motion_mirroring = Vector2(1152, 0)

[node name="Back" type="Sprite2D" parent="BG/ParallaxLayer"]
position = Vector2(576, 325)
scale = Vector2(3, 2.66667)
texture = ExtResource("2_k3qla")

[node name="ParallaxLayer2" type="ParallaxLayer" parent="BG"]
motion_scale = Vector2(0.7, 1)
motion_mirroring = Vector2(1196, 0)

[node name="Middle" type="Sprite2D" parent="BG/ParallaxLayer2"]
position = Vector2(89, 463)
texture = ExtResource("3_wpafx")

[node name="Middle2" type="Sprite2D" parent="BG/ParallaxLayer2"]
position = Vector2(264, 470)
texture = ExtResource("3_wpafx")

[node name="Middle3" type="Sprite2D" parent="BG/ParallaxLayer2"]
position = Vector2(432, 470)
texture = ExtResource("3_wpafx")

[node name="Middle4" type="Sprite2D" parent="BG/ParallaxLayer2"]
position = Vector2(427, 334)
texture = ExtResource("3_wpafx")
offset = Vector2(177, 140)

[node name="Middle5" type="Sprite2D" parent="BG/ParallaxLayer2"]
position = Vector2(769, 470)
texture = ExtResource("3_wpafx")

[node name="Middle6" type="Sprite2D" parent="BG/ParallaxLayer2"]
position = Vector2(944, 476)
texture = ExtResource("3_wpafx")

[node name="Middle7" type="Sprite2D" parent="BG/ParallaxLayer2"]
position = Vector2(1109, 472)
texture = ExtResource("3_wpafx")

[node name="Player" type="Node2D" parent="."]

[node name="Player" parent="Player" instance=ExtResource("1_na28q")]
position = Vector2(218, 379)

[node name="Mobs" type="Node2D" parent="."]

[node name="Frog" parent="Mobs" instance=ExtResource("6_5pcnw")]
position = Vector2(931, 335)

[node name="Frog2" parent="Mobs" instance=ExtResource("6_5pcnw")]
position = Vector2(696, 296)

[node name="Frog3" parent="Mobs" instance=ExtResource("6_5pcnw")]
position = Vector2(1289, 208)

[node name="Frog4" parent="Mobs" instance=ExtResource("6_5pcnw")]
position = Vector2(527, 144)

[node name="UI" type="CanvasLayer" parent="."]

[node name="HP" type="Label" parent="UI"]
offset_left = 17.0
offset_top = 17.0
offset_right = 57.0
offset_bottom = 40.0
theme_override_colors/font_color = Color(0, 0, 0.733333, 1)
theme_override_font_sizes/font_size = 24
script = ExtResource("7_0qpfy")

[node name="Label" type="Label" parent="UI"]
offset_left = 16.0
offset_top = 68.0
offset_right = 56.0
offset_bottom = 102.0
theme_override_colors/font_color = Color(0, 0, 0.733333, 1)
theme_override_font_sizes/font_size = 24
script = SubResource("GDScript_4i83s")
